%YAML 1.1
%TAG !u! tag:unity3d.com,2011:
--- !u!74 &7400000
AnimationClip:
  m_ObjectHideFlags: 0
  m_CorrespondingSourceObject: {fileID: 0}
  m_PrefabInstance: {fileID: 0}
  m_PrefabAsset: {fileID: 0}
  m_Name: Puff
  serializedVersion: 6
  m_Legacy: 0
  m_Compressed: 0
  m_UseHighQualityCurve: 1
  m_RotationCurves: []
  m_CompressedRotationCurves: []
  m_EulerCurves: []
  m_PositionCurves: []
  m_ScaleCurves: []
  m_FloatCurves: []
  m_PPtrCurves:
  - curve:
    - time: 0
      value: {fileID: 21300000, guid: 77d688401d12f4fa5a979764d9164eae, type: 3}
    - time: 0.04
      value: {fileID: 21300000, guid: 57e9c8ee9d320460c87292e235efc99f, type: 3}
    - time: 0.08
      value: {fileID: 21300000, guid: 002e770972c044b8caa8b7653e6b6c55, type: 3}
    - time: 0.12
      value: {fileID: 21300000, guid: 26780ecab8a694454ab7cff109175cf5, type: 3}
    - time: 0.2
      value: {fileID: 21300000, guid: c40ddb33ef82f4d93b131cbccfc56b58, type: 3}
    - time: 0.28
      value: {fileID: 21300000, guid: afd56a103ef92472b978a3b8c2d64dee, type: 3}
    - time: 0.36
      value: {fileID: 21300000, guid: bd7d82618f34842a1b8c8d8841d1bfea, type: 3}
    - time: 0.4
      value: {fileID: 21300000, guid: e0a042c78ec05462da95ec421eedd9ba, type: 3}
    - time: 0.44
      value: {fileID: 21300000, guid: c0ab19a233ef141bd98a973136e3c629, type: 3}
    - time: 0.48
      value: {fileID: 21300000, guid: b5d796fece6d048028d649a865ec82e6, type: 3}
    - time: 0.52
      value: {fileID: 21300000, guid: 074f49008bcf94fadbf32300aaeddaba, type: 3}
    - time: 0.56
      value: {fileID: 21300000, guid: 81c85f4d305d241c6b2f7f123d2002a2, type: 3}
    - time: 0.6
      value: {fileID: 21300000, guid: 45f45c13198f34cd8bf0f0ac09786de3, type: 3}
    - time: 0.64
      value: {fileID: 21300000, guid: 4efe3fa1835de419bbcf8ec0cdb63e1a, type: 3}
    - time: 0.68
      value: {fileID: 21300000, guid: 45388e0bc85e441cc88b02b13048215a, type: 3}
    - time: 0.72
      value: {fileID: 21300000, guid: 7672f95824a04489e9e22a736588a006, type: 3}
    - time: 0.76
      value: {fileID: 21300000, guid: f57247a0947e6483cb68964b2e4a4a17, type: 3}
    - time: 0.8
      value: {fileID: 21300000, guid: 3b10020b77c0147a9a1660a6efbc7e63, type: 3}
    - time: 0.84
      value: {fileID: 21300000, guid: f4de372c821d940c59445d4cd4585274, type: 3}
    - time: 0.88
      value: {fileID: 21300000, guid: 7d0e3fba61e42437b81cdc08467ad97c, type: 3}
    - time: 0.92
      value: {fileID: 21300000, guid: 25bbd2662f1f34b739c7fc53bb9928fb, type: 3}
    - time: 0.96
      value: {fileID: 21300000, guid: b354f4b1ed2014ee8a417b0eef02630a, type: 3}
    - time: 1
      value: {fileID: 21300000, guid: 541ec09fe930549968e669b227b492c8, type: 3}
    - time: 1.04
      value: {fileID: 21300000, guid: c91652661c85445a58207e959d49f2b1, type: 3}
    - time: 1.08
      value: {fileID: 21300000, guid: 1e66efb04b970495384c2e9d7d76c555, type: 3}
    - time: 1.12
      value: {fileID: 21300000, guid: 7ae847d4915d144aea8626c7a9fe60ae, type: 3}
    - time: 1.16
      value: {fileID: 21300000, guid: a71d28e8d63974afea4b7bc4f9fb686b, type: 3}
    - time: 1.2
      value: {fileID: 21300000, guid: 4a1ca195ff6854cc4ade0ec359565a1f, type: 3}
    - time: 1.24
      value: {fileID: 21300000, guid: d321cd8da0d3c49878e735eb5df12c3c, type: 3}
    - time: 1.28
      value: {fileID: 21300000, guid: b35639fbf5667498e92ff5ba8fbb47c9, type: 3}
    - time: 1.32
      value: {fileID: 21300000, guid: 3deabd4a819414c0280440d3879aac5c, type: 3}
    - time: 1.36
      value: {fileID: 21300000, guid: b8c34d31f784f49cc91e854d0113bec1, type: 3}
    - time: 1.4
      value: {fileID: 21300000, guid: 7c7f3649faede4a1ca86c08092371708, type: 3}
    - time: 1.44
      value: {fileID: 21300000, guid: f93c17733898d41f4bc6478e78b203ad, type: 3}
    - time: 1.48
      value: {fileID: 21300000, guid: 45125f644406a43dda70d0c978aac505, type: 3}
    - time: 1.52
      value: {fileID: 21300000, guid: 75f8e77951169441bb86813eb65cfbd8, type: 3}
    - time: 1.56
      value: {fileID: 21300000, guid: 9a530ea262e01492aacfa4e3c441daef, type: 3}
    - time: 1.6
      value: {fileID: 21300000, guid: a4aa9689448704afd8555172d27de8e4, type: 3}
    - time: 1.64
      value: {fileID: 21300000, guid: c18c93167b8ac494a9bf1ea09e0f96b2, type: 3}
    - time: 1.68
      value: {fileID: 21300000, guid: e1eab84bb0adf4085bbd06fde1485f28, type: 3}
    - time: 1.72
      value: {fileID: 21300000, guid: 57610bc1829124e35bed1e6d9dec24d8, type: 3}
    - time: 1.76
      value: {fileID: 21300000, guid: 8b27657c70d1c41929f744f9515afec1, type: 3}
    - time: 1.8
      value: {fileID: 21300000, guid: 999e5cc2c88314701988ffb3381b5408, type: 3}
    - time: 1.84
      value: {fileID: 21300000, guid: f02d6d481b474414a8a2d2e06cd8653b, type: 3}
    - time: 1.88
      value: {fileID: 21300000, guid: aff5c5ab20cfc4f428825374510fe882, type: 3}
    - time: 1.92
      value: {fileID: 21300000, guid: d06741d8268124f2db1d1a0b88d57675, type: 3}
    - time: 1.96
      value: {fileID: 21300000, guid: 0b1ca6d79e1314cb2a08f077e29d7858, type: 3}
    - time: 2
      value: {fileID: 21300000, guid: 4fc48fe41b9fa4dee97cc066a87bb715, type: 3}
    - time: 2.04
      value: {fileID: 21300000, guid: e48ec5325bda64855a792ec7512e2cc6, type: 3}
    - time: 2.08
      value: {fileID: 21300000, guid: 02bf3883242794dff8eedb4d64655ad2, type: 3}
    - time: 2.12
      value: {fileID: 21300000, guid: 924eff72745e4406cb0b5f1b995aaae7, type: 3}
    - time: 2.16
      value: {fileID: 21300000, guid: f16302febc8f84cd6a3bcbd92eef1945, type: 3}
    - time: 2.2
      value: {fileID: 21300000, guid: 03f6b7a3d54f245f1a0868c2fb69888e, type: 3}
    - time: 2.24
      value: {fileID: 21300000, guid: 6264fa0e58bca45f18f3f7cde4a990ae, type: 3}
    - time: 2.28
      value: {fileID: 21300000, guid: 4cc5d980940494e8c9a940cf1eb6f4fe, type: 3}
    - time: 2.32
      value: {fileID: 21300000, guid: e9aa20bb4d01c4e619525f0bac3d93fe, type: 3}
    - time: 2.36
      value: {fileID: 21300000, guid: ae47e9e5be45f4840aece1eaeed48ad0, type: 3}
    - time: 2.4
      value: {fileID: 21300000, guid: 3d224399bd14d42a99e6d183c75ab91d, type: 3}
    - time: 2.44
      value: {fileID: 21300000, guid: 1cc09d527fa2a4a3bb1ba73105839723, type: 3}
    - time: 2.48
      value: {fileID: 21300000, guid: 331024fc0a4864c5aa3645f928c24614, type: 3}
    - time: 2.52
      value: {fileID: 21300000, guid: 3f5827df7ef2545fdae6b9689b466ca5, type: 3}
    - time: 2.56
      value: {fileID: 21300000, guid: f89fe6fd02b954f04a9dd444da0d21a7, type: 3}
    - time: 2.6
      value: {fileID: 21300000, guid: 9e05133e6ca3d4348ab78ededf0a6091, type: 3}
    - time: 2.64
      value: {fileID: 21300000, guid: 30a2820923c3741a6887b971ccb0d248, type: 3}
    - time: 2.68
      value: {fileID: 21300000, guid: d5b344dd175e4496d85205ca10e49cd6, type: 3}
    - time: 2.72
      value: {fileID: 21300000, guid: e99931930b9974fdfa84da971989a4a2, type: 3}
    attribute: m_Sprite
    path: Art
    classID: 212
    script: {fileID: 0}
  m_SampleRate: 25
  m_WrapMode: 0
  m_Bounds:
    m_Center: {x: 0, y: 0, z: 0}
    m_Extent: {x: 0, y: 0, z: 0}
  m_ClipBindingConstant:
    genericBindings:
    - serializedVersion: 2
      path: 3296235700
      attribute: 0
      script: {fileID: 0}
      typeID: 212
      customType: 23
      isPPtrCurve: 1
    pptrCurveMapping:
    - {fileID: 21300000, guid: 77d688401d12f4fa5a979764d9164eae, type: 3}
    - {fileID: 21300000, guid: 57e9c8ee9d320460c87292e235efc99f, type: 3}
    - {fileID: 21300000, guid: 002e770972c044b8caa8b7653e6b6c55, type: 3}
    - {fileID: 21300000, guid: 26780ecab8a694454ab7cff109175cf5, type: 3}
    - {fileID: 21300000, guid: c40ddb33ef82f4d93b131cbccfc56b58, type: 3}
    - {fileID: 21300000, guid: afd56a103ef92472b978a3b8c2d64dee, type: 3}
    - {fileID: 21300000, guid: bd7d82618f34842a1b8c8d8841d1bfea, type: 3}
    - {fileID: 21300000, guid: e0a042c78ec05462da95ec421eedd9ba, type: 3}
    - {fileID: 21300000, guid: c0ab19a233ef141bd98a973136e3c629, type: 3}
    - {fileID: 21300000, guid: b5d796fece6d048028d649a865ec82e6, type: 3}
    - {fileID: 21300000, guid: 074f49008bcf94fadbf32300aaeddaba, type: 3}
    - {fileID: 21300000, guid: 81c85f4d305d241c6b2f7f123d2002a2, type: 3}
    - {fileID: 21300000, guid: 45f45c13198f34cd8bf0f0ac09786de3, type: 3}
    - {fileID: 21300000, guid: 4efe3fa1835de419bbcf8ec0cdb63e1a, type: 3}
    - {fileID: 21300000, guid: 45388e0bc85e441cc88b02b13048215a, type: 3}
    - {fileID: 21300000, guid: 7672f95824a04489e9e22a736588a006, type: 3}
    - {fileID: 21300000, guid: f57247a0947e6483cb68964b2e4a4a17, type: 3}
    - {fileID: 21300000, guid: 3b10020b77c0147a9a1660a6efbc7e63, type: 3}
    - {fileID: 21300000, guid: f4de372c821d940c59445d4cd4585274, type: 3}
    - {fileID: 21300000, guid: 7d0e3fba61e42437b81cdc08467ad97c, type: 3}
    - {fileID: 21300000, guid: 25bbd2662f1f34b739c7fc53bb9928fb, type: 3}
    - {fileID: 21300000, guid: b354f4b1ed2014ee8a417b0eef02630a, type: 3}
    - {fileID: 21300000, guid: 541ec09fe930549968e669b227b492c8, type: 3}
    - {fileID: 21300000, guid: c91652661c85445a58207e959d49f2b1, type: 3}
    - {fileID: 21300000, guid: 1e66efb04b970495384c2e9d7d76c555, type: 3}
    - {fileID: 21300000, guid: 7ae847d4915d144aea8626c7a9fe60ae, type: 3}
    - {fileID: 21300000, guid: a71d28e8d63974afea4b7bc4f9fb686b, type: 3}
    - {fileID: 21300000, guid: 4a1ca195ff6854cc4ade0ec359565a1f, type: 3}
    - {fileID: 21300000, guid: d321cd8da0d3c49878e735eb5df12c3c, type: 3}
    - {fileID: 21300000, guid: b35639fbf5667498e92ff5ba8fbb47c9, type: 3}
    - {fileID: 21300000, guid: 3deabd4a819414c0280440d3879aac5c, type: 3}
    - {fileID: 21300000, guid: b8c34d31f784f49cc91e854d0113bec1, type: 3}
    - {fileID: 21300000, guid: 7c7f3649faede4a1ca86c08092371708, type: 3}
    - {fileID: 21300000, guid: f93c17733898d41f4bc6478e78b203ad, type: 3}
    - {fileID: 21300000, guid: 45125f644406a43dda70d0c978aac505, type: 3}
    - {fileID: 21300000, guid: 75f8e77951169441bb86813eb65cfbd8, type: 3}
    - {fileID: 21300000, guid: 9a530ea262e01492aacfa4e3c441daef, type: 3}
    - {fileID: 21300000, guid: a4aa9689448704afd8555172d27de8e4, type: 3}
    - {fileID: 21300000, guid: c18c93167b8ac494a9bf1ea09e0f96b2, type: 3}
    - {fileID: 21300000, guid: e1eab84bb0adf4085bbd06fde1485f28, type: 3}
    - {fileID: 21300000, guid: 57610bc1829124e35bed1e6d9dec24d8, type: 3}
    - {fileID: 21300000, guid: 8b27657c70d1c41929f744f9515afec1, type: 3}
    - {fileID: 21300000, guid: 999e5cc2c88314701988ffb3381b5408, type: 3}
    - {fileID: 21300000, guid: f02d6d481b474414a8a2d2e06cd8653b, type: 3}
    - {fileID: 21300000, guid: aff5c5ab20cfc4f428825374510fe882, type: 3}
    - {fileID: 21300000, guid: d06741d8268124f2db1d1a0b88d57675, type: 3}
    - {fileID: 21300000, guid: 0b1ca6d79e1314cb2a08f077e29d7858, type: 3}
    - {fileID: 21300000, guid: 4fc48fe41b9fa4dee97cc066a87bb715, type: 3}
    - {fileID: 21300000, guid: e48ec5325bda64855a792ec7512e2cc6, type: 3}
    - {fileID: 21300000, guid: 02bf3883242794dff8eedb4d64655ad2, type: 3}
    - {fileID: 21300000, guid: 924eff72745e4406cb0b5f1b995aaae7, type: 3}
    - {fileID: 21300000, guid: f16302febc8f84cd6a3bcbd92eef1945, type: 3}
    - {fileID: 21300000, guid: 03f6b7a3d54f245f1a0868c2fb69888e, type: 3}
    - {fileID: 21300000, guid: 6264fa0e58bca45f18f3f7cde4a990ae, type: 3}
    - {fileID: 21300000, guid: 4cc5d980940494e8c9a940cf1eb6f4fe, type: 3}
    - {fileID: 21300000, guid: e9aa20bb4d01c4e619525f0bac3d93fe, type: 3}
    - {fileID: 21300000, guid: ae47e9e5be45f4840aece1eaeed48ad0, type: 3}
    - {fileID: 21300000, guid: 3d224399bd14d42a99e6d183c75ab91d, type: 3}
    - {fileID: 21300000, guid: 1cc09d527fa2a4a3bb1ba73105839723, type: 3}
    - {fileID: 21300000, guid: 331024fc0a4864c5aa3645f928c24614, type: 3}
    - {fileID: 21300000, guid: 3f5827df7ef2545fdae6b9689b466ca5, type: 3}
    - {fileID: 21300000, guid: f89fe6fd02b954f04a9dd444da0d21a7, type: 3}
    - {fileID: 21300000, guid: 9e05133e6ca3d4348ab78ededf0a6091, type: 3}
    - {fileID: 21300000, guid: 30a2820923c3741a6887b971ccb0d248, type: 3}
    - {fileID: 21300000, guid: d5b344dd175e4496d85205ca10e49cd6, type: 3}
    - {fileID: 21300000, guid: e99931930b9974fdfa84da971989a4a2, type: 3}
  m_AnimationClipSettings:
    serializedVersion: 2
    m_AdditiveReferencePoseClip: {fileID: 0}
    m_AdditiveReferencePoseTime: 0
    m_StartTime: 0
    m_StopTime: 2.76
    m_OrientationOffsetY: 0
    m_Level: 0
    m_CycleOffset: 0
    m_HasAdditiveReferencePose: 0
    m_LoopTime: 1
    m_LoopBlend: 0
    m_LoopBlendOrientation: 0
    m_LoopBlendPositionY: 0
    m_LoopBlendPositionXZ: 0
    m_KeepOriginalOrientation: 0
    m_KeepOriginalPositionY: 1
    m_KeepOriginalPositionXZ: 0
    m_HeightFromFeet: 0
    m_Mirror: 0
  m_EditorCurves: []
  m_EulerEditorCurves: []
  m_HasGenericRootTransform: 0
  m_HasMotionFloatCurves: 0
  m_Events:
  - time: 0.4
    functionName: GetLarge
    data: 
    objectReferenceParameter: {fileID: 0}
    floatParameter: 0
    intParameter: 0
    messageOptions: 0
  - time: 2.16
    functionName: GetSmall
    data: 
    objectReferenceParameter: {fileID: 0}
    floatParameter: 0
    intParameter: 0
    messageOptions: 0
