%YAML 1.1
%TAG !u! tag:unity3d.com,2011:
--- !u!114 &11400000
MonoBehaviour:
  m_ObjectHideFlags: 0
  m_CorrespondingSourceObject: {fileID: 0}
  m_PrefabInstance: {fileID: 0}
  m_PrefabAsset: {fileID: 0}
  m_GameObject: {fileID: 0}
  m_Enabled: 1
  m_EditorHideFlags: 0
  m_Script: {fileID: 11500000, guid: 6de6f32a1adb045438f93b5466c13673, type: 3}
  m_Name: DefaultConfig
  m_EditorClassIdentifier: 
  _gameConfig:
    LevelInfoData:
    - Name: Level00
      PlayerNameUnLocked: 
      IsLevelLock: 0
    - Name: Level01
      PlayerNameUnLocked: 
      IsLevelLock: 1
    - Name: Level02
      PlayerNameUnLocked: 
      IsLevelLock: 1
    - Name: Level03
      PlayerNameUnLocked: 
      IsLevelLock: 1
    SoundInfoData:
      MusicValue: 1
      SFXValue: 1
    CurrentLevelIndex: 0
