%YAML 1.1
%TAG !u! tag:unity3d.com,2011:
--- !u!114 &11400000
MonoBehaviour:
  m_ObjectHideFlags: 0
  m_CorrespondingSourceObject: {fileID: 0}
  m_PrefabInstance: {fileID: 0}
  m_PrefabAsset: {fileID: 0}
  m_GameObject: {fileID: 0}
  m_Enabled: 1
  m_EditorHideFlags: 0
  m_Script: {fileID: 11500000, guid: 026f40974d5f0d24ab25d874bcd6fa9e, type: 3}
  m_Name: DiagonalSpikes_bottom_left
  m_EditorClassIdentifier: 
  m_Sprite: {fileID: 0}
  m_Color: {r: 1, g: 1, b: 1, a: 1}
  m_Transform:
    e00: 1
    e01: 0
    e02: 0
    e03: 0
    e10: 0
    e11: 1
    e12: 0
    e13: 0
    e20: 0
    e21: 0
    e22: 1
    e23: 0
    e30: 0
    e31: 0
    e32: 0
    e33: 1
  m_InstancedGameObject: {fileID: 0}
  m_Flags: 1
  m_ColliderType: 1
  Prefab: {fileID: 3712418255246145545, guid: 6d8d8e3afeb30344297ce950eae19912, type: 3}
  DeleteTile: 0
  m_DefaultSprite: {fileID: -5108118794561676572, guid: 57e8e326325654f4eaf972c11c679935,
    type: 3}
  m_DefaultColliderType: 1
  m_TilingRules:
  - m_Neighbors: 0000000000000000000000000000000000000000000000000000000000000000
    m_Sprites:
    - {fileID: -5108118794561676572, guid: 57e8e326325654f4eaf972c11c679935, type: 3}
    m_AnimationSpeed: 1
    m_PerlinScale: 0.5
    m_RuleTransform: 0
    m_Output: 0
    m_ColliderType: 1
    m_RandomTransform: 0
    m_GameObject: {fileID: 0}
