%YAML 1.1
%TAG !u! tag:unity3d.com,2011:
--- !u!114 &11400000
MonoBehaviour:
  m_ObjectHideFlags: 0
  m_CorrespondingSourceObject: {fileID: 0}
  m_PrefabInstance: {fileID: 0}
  m_PrefabAsset: {fileID: 0}
  m_GameObject: {fileID: 0}
  m_Enabled: 1
  m_EditorHideFlags: 0
  m_Script: {fileID: 11500000, guid: da2275b907b09944da8779900fa9c4de, type: 3}
  m_Name: Level01
  m_EditorClassIdentifier: 
  _startChunk: {fileID: 5699436088434563370, guid: 20f47d7e0d9d42d468754ee1995657a3,
    type: 3}
  _endChunk: {fileID: 517465416452257268, guid: 3d5ed605804ef4a48bc8752a839ee67d,
    type: 3}
  _chunkToChoose:
  - {fileID: 2336986849945271984, guid: d97c203dbd3543244a3fbdd7c9f2f515, type: 3}
