%YAML 1.1
%TAG !u! tag:unity3d.com,2011:
--- !u!114 &11400000
MonoBehaviour:
  m_ObjectHideFlags: 0
  m_CorrespondingSourceObject: {fileID: 0}
  m_PrefabInstance: {fileID: 0}
  m_PrefabAsset: {fileID: 0}
  m_GameObject: {fileID: 0}
  m_Enabled: 1
  m_EditorHideFlags: 0
  m_Script: {fileID: 11500000, guid: da2275b907b09944da8779900fa9c4de, type: 3}
  m_Name: My_New_Level
  m_EditorClassIdentifier: 
  _startChunk: {fileID: 0}
  _endChunk: {fileID: 0}
  _chunkToChoose: []
