%YAML 1.1
%TAG !u! tag:unity3d.com,2011:
--- !u!74 &7400000
AnimationClip:
  m_ObjectHideFlags: 0
  m_CorrespondingSourceObject: {fileID: 0}
  m_PrefabInstance: {fileID: 0}
  m_PrefabAsset: {fileID: 0}
  m_Name: PlayerDeathAnimation
  serializedVersion: 6
  m_Legacy: 0
  m_Compressed: 0
  m_UseHighQualityCurve: 1
  m_RotationCurves: []
  m_CompressedRotationCurves: []
  m_EulerCurves: []
  m_PositionCurves: []
  m_ScaleCurves: []
  m_FloatCurves: []
  m_PPtrCurves:
  - curve:
    - time: 0
      value: {fileID: 21300000, guid: 3ff97b010180a4112887c40240262f39, type: 3}
    - time: 0.016666668
      value: {fileID: 21300000, guid: 6ca108c3ab84a44bdaa24da5b33c07c7, type: 3}
    - time: 0.033333335
      value: {fileID: 21300000, guid: e99afeb5e129746beaee5e67d3305657, type: 3}
    - time: 0.05
      value: {fileID: 21300000, guid: c85e0971c76684e05a927e90b582a992, type: 3}
    - time: 0.06666667
      value: {fileID: 21300000, guid: eddaa566e69b0431799a3a2c67cf3d8a, type: 3}
    - time: 0.083333336
      value: {fileID: 21300000, guid: b158c995f0bbd4c73a334c4550cf938e, type: 3}
    - time: 0.1
      value: {fileID: 21300000, guid: 0e995028666354f81a0d412fbdbc2a31, type: 3}
    - time: 0.11666667
      value: {fileID: 21300000, guid: cc9032a4f85ec4a44badf96e91217ec7, type: 3}
    - time: 0.13333334
      value: {fileID: 21300000, guid: d1820099f4c0d4dd2b76947a0a1ca52c, type: 3}
    - time: 0.15
      value: {fileID: 21300000, guid: 0bf826356a3dc43b7908361a9e5acf91, type: 3}
    - time: 0.16666667
      value: {fileID: 21300000, guid: d9ebf62ab606c440fbfaede6505565c5, type: 3}
    - time: 0.18333334
      value: {fileID: 21300000, guid: 8cd00102c2ca14469986fa6e95cebd8a, type: 3}
    - time: 0.2
      value: {fileID: 21300000, guid: 3c465595428af4715975b699c1e96955, type: 3}
    - time: 0.21666667
      value: {fileID: 21300000, guid: 928f80c20fa7c42d7a65bffb6e041a63, type: 3}
    - time: 0.23333333
      value: {fileID: 21300000, guid: 14d4e3dd838b6487385d2d6f486a7d06, type: 3}
    - time: 0.25
      value: {fileID: 21300000, guid: 2581a168b37ae4bdea4026ea8065a273, type: 3}
    - time: 0.26666668
      value: {fileID: 21300000, guid: 98073449c97ba466fa913c506ec5b65e, type: 3}
    - time: 0.28333333
      value: {fileID: 21300000, guid: 0b42d10cedd5f441d8dde71697dbee9d, type: 3}
    - time: 0.3
      value: {fileID: 21300000, guid: 09b28e9a3cde94ee4a1b8ae6de8e3858, type: 3}
    - time: 0.31666666
      value: {fileID: 21300000, guid: 8f9b3f8ff5fe2427380814d8510c17c1, type: 3}
    - time: 0.33333334
      value: {fileID: 21300000, guid: 702d04b3484ff42418febc78ddaee91c, type: 3}
    - time: 0.35
      value: {fileID: 21300000, guid: b3918cf4765264f838374b2ee32da9c8, type: 3}
    - time: 0.36666667
      value: {fileID: 21300000, guid: 9fd6823532d3a47f2b458811eac9f5c2, type: 3}
    - time: 0.38333333
      value: {fileID: 21300000, guid: 936ebff39cb7f4152aa1a65e5aa9ad44, type: 3}
    - time: 0.4
      value: {fileID: 21300000, guid: ea9cfe884c02a4c149527c59aa6a4baa, type: 3}
    - time: 0.41666666
      value: {fileID: 21300000, guid: d716be7bdf0a34b418013030e8cdc5b6, type: 3}
    - time: 0.43333334
      value: {fileID: 21300000, guid: 669e953bbcc904f3f9890dac88d92730, type: 3}
    - time: 0.45
      value: {fileID: 21300000, guid: ec211ae97b0514744b5e0ae66fa1327f, type: 3}
    - time: 0.46666667
      value: {fileID: 21300000, guid: 9369c97ea712348b1abe2b309d59b8cc, type: 3}
    - time: 0.48333332
      value: {fileID: 21300000, guid: 43c693ae88d3744598afdc01824b6033, type: 3}
    - time: 0.5
      value: {fileID: 21300000, guid: 4115334c3c6dd487d81544eaa97c4202, type: 3}
    - time: 0.51666665
      value: {fileID: 21300000, guid: 5ecc01c18a5d143ea9f3ca6171283163, type: 3}
    - time: 0.53333336
      value: {fileID: 21300000, guid: 8e36ba6af5660450bb13e9d51af1ff0b, type: 3}
    - time: 0.55
      value: {fileID: 21300000, guid: 73fe03489a6c0479cb9e70abea87f272, type: 3}
    - time: 0.56666666
      value: {fileID: 21300000, guid: 13459885ebd6749b3bc6e91d782ae3ce, type: 3}
    - time: 0.5833333
      value: {fileID: 21300000, guid: e8a4b74aa8b2a4c03ad2ac5f01fb7502, type: 3}
    - time: 0.6
      value: {fileID: 21300000, guid: de314d452c23346269c86917ffa89dcf, type: 3}
    - time: 0.6166667
      value: {fileID: 21300000, guid: 856cb1660d1b34762a5a6c425b945632, type: 3}
    - time: 0.6333333
      value: {fileID: 21300000, guid: 09d761ba460ec4c7a871e78bb78506ab, type: 3}
    - time: 0.65
      value: {fileID: 21300000, guid: 34d32afe1e9624acdb74efcea5a78846, type: 3}
    - time: 0.6666667
      value: {fileID: 21300000, guid: a3b452287f5a344368fa988756d1ed6e, type: 3}
    - time: 0.68333334
      value: {fileID: 21300000, guid: 006411f131c2b483a80cec135dc4b955, type: 3}
    - time: 0.7
      value: {fileID: 21300000, guid: 61232ebe0b3f0423d85ad5bb15280038, type: 3}
    - time: 0.71666664
      value: {fileID: 21300000, guid: b0c185c72f41e4c6c9413522acf0f152, type: 3}
    - time: 0.73333335
      value: {fileID: 21300000, guid: 34df96b2cfdcd4a6c88fa120a9b6a58e, type: 3}
    - time: 0.75
      value: {fileID: 21300000, guid: c7f2cd36429594ae4b97d99543711caa, type: 3}
    - time: 0.76666665
      value: {fileID: 21300000, guid: 965d25e674465482abc6a62099036921, type: 3}
    - time: 0.78333336
      value: {fileID: 21300000, guid: 928c882c9527d454bba8d5ace42bbdd1, type: 3}
    - time: 0.8
      value: {fileID: 21300000, guid: 2c9783873010c45a1968a121f97b4113, type: 3}
    - time: 0.81666666
      value: {fileID: 21300000, guid: a1e2ed603bd2545cf9b179c8ac1f7b0e, type: 3}
    - time: 0.8333333
      value: {fileID: 21300000, guid: ba8431a5faf1d4bf8abfe53ebbc474ae, type: 3}
    - time: 0.85
      value: {fileID: 21300000, guid: 7555d71cace064f95a472cb12281b910, type: 3}
    - time: 0.8666667
      value: {fileID: 21300000, guid: 555291907d83145599742b98e7ebe7c7, type: 3}
    - time: 0.8833333
      value: {fileID: 21300000, guid: e9aec55d68a744398aaa888d6dea51a3, type: 3}
    - time: 0.9
      value: {fileID: 21300000, guid: 4082b5e1658054c6ebd124b63e88effc, type: 3}
    - time: 0.9166667
      value: {fileID: 21300000, guid: c539410758c2f47a5938d1757be3c90a, type: 3}
    - time: 0.93333334
      value: {fileID: 21300000, guid: 2469ee3c74b5d4f83bc18da96802c320, type: 3}
    - time: 0.95
      value: {fileID: 21300000, guid: 379385244721d4c48aab04394b3d01a0, type: 3}
    - time: 0.96666664
      value: {fileID: 21300000, guid: 2dfa1a6542ed14d3e9267b97f5062e0c, type: 3}
    - time: 0.98333335
      value: {fileID: 21300000, guid: e9f4830d84c524b039e473f37b9dfc72, type: 3}
    attribute: m_Sprite
    path: Art
    classID: 212
    script: {fileID: 0}
  m_SampleRate: 60
  m_WrapMode: 0
  m_Bounds:
    m_Center: {x: 0, y: 0, z: 0}
    m_Extent: {x: 0, y: 0, z: 0}
  m_ClipBindingConstant:
    genericBindings:
    - serializedVersion: 2
      path: 3296235700
      attribute: 0
      script: {fileID: 0}
      typeID: 212
      customType: 23
      isPPtrCurve: 1
    pptrCurveMapping:
    - {fileID: 21300000, guid: 3ff97b010180a4112887c40240262f39, type: 3}
    - {fileID: 21300000, guid: 6ca108c3ab84a44bdaa24da5b33c07c7, type: 3}
    - {fileID: 21300000, guid: e99afeb5e129746beaee5e67d3305657, type: 3}
    - {fileID: 21300000, guid: c85e0971c76684e05a927e90b582a992, type: 3}
    - {fileID: 21300000, guid: eddaa566e69b0431799a3a2c67cf3d8a, type: 3}
    - {fileID: 21300000, guid: b158c995f0bbd4c73a334c4550cf938e, type: 3}
    - {fileID: 21300000, guid: 0e995028666354f81a0d412fbdbc2a31, type: 3}
    - {fileID: 21300000, guid: cc9032a4f85ec4a44badf96e91217ec7, type: 3}
    - {fileID: 21300000, guid: d1820099f4c0d4dd2b76947a0a1ca52c, type: 3}
    - {fileID: 21300000, guid: 0bf826356a3dc43b7908361a9e5acf91, type: 3}
    - {fileID: 21300000, guid: d9ebf62ab606c440fbfaede6505565c5, type: 3}
    - {fileID: 21300000, guid: 8cd00102c2ca14469986fa6e95cebd8a, type: 3}
    - {fileID: 21300000, guid: 3c465595428af4715975b699c1e96955, type: 3}
    - {fileID: 21300000, guid: 928f80c20fa7c42d7a65bffb6e041a63, type: 3}
    - {fileID: 21300000, guid: 14d4e3dd838b6487385d2d6f486a7d06, type: 3}
    - {fileID: 21300000, guid: 2581a168b37ae4bdea4026ea8065a273, type: 3}
    - {fileID: 21300000, guid: 98073449c97ba466fa913c506ec5b65e, type: 3}
    - {fileID: 21300000, guid: 0b42d10cedd5f441d8dde71697dbee9d, type: 3}
    - {fileID: 21300000, guid: 09b28e9a3cde94ee4a1b8ae6de8e3858, type: 3}
    - {fileID: 21300000, guid: 8f9b3f8ff5fe2427380814d8510c17c1, type: 3}
    - {fileID: 21300000, guid: 702d04b3484ff42418febc78ddaee91c, type: 3}
    - {fileID: 21300000, guid: b3918cf4765264f838374b2ee32da9c8, type: 3}
    - {fileID: 21300000, guid: 9fd6823532d3a47f2b458811eac9f5c2, type: 3}
    - {fileID: 21300000, guid: 936ebff39cb7f4152aa1a65e5aa9ad44, type: 3}
    - {fileID: 21300000, guid: ea9cfe884c02a4c149527c59aa6a4baa, type: 3}
    - {fileID: 21300000, guid: d716be7bdf0a34b418013030e8cdc5b6, type: 3}
    - {fileID: 21300000, guid: 669e953bbcc904f3f9890dac88d92730, type: 3}
    - {fileID: 21300000, guid: ec211ae97b0514744b5e0ae66fa1327f, type: 3}
    - {fileID: 21300000, guid: 9369c97ea712348b1abe2b309d59b8cc, type: 3}
    - {fileID: 21300000, guid: 43c693ae88d3744598afdc01824b6033, type: 3}
    - {fileID: 21300000, guid: 4115334c3c6dd487d81544eaa97c4202, type: 3}
    - {fileID: 21300000, guid: 5ecc01c18a5d143ea9f3ca6171283163, type: 3}
    - {fileID: 21300000, guid: 8e36ba6af5660450bb13e9d51af1ff0b, type: 3}
    - {fileID: 21300000, guid: 73fe03489a6c0479cb9e70abea87f272, type: 3}
    - {fileID: 21300000, guid: 13459885ebd6749b3bc6e91d782ae3ce, type: 3}
    - {fileID: 21300000, guid: e8a4b74aa8b2a4c03ad2ac5f01fb7502, type: 3}
    - {fileID: 21300000, guid: de314d452c23346269c86917ffa89dcf, type: 3}
    - {fileID: 21300000, guid: 856cb1660d1b34762a5a6c425b945632, type: 3}
    - {fileID: 21300000, guid: 09d761ba460ec4c7a871e78bb78506ab, type: 3}
    - {fileID: 21300000, guid: 34d32afe1e9624acdb74efcea5a78846, type: 3}
    - {fileID: 21300000, guid: a3b452287f5a344368fa988756d1ed6e, type: 3}
    - {fileID: 21300000, guid: 006411f131c2b483a80cec135dc4b955, type: 3}
    - {fileID: 21300000, guid: 61232ebe0b3f0423d85ad5bb15280038, type: 3}
    - {fileID: 21300000, guid: b0c185c72f41e4c6c9413522acf0f152, type: 3}
    - {fileID: 21300000, guid: 34df96b2cfdcd4a6c88fa120a9b6a58e, type: 3}
    - {fileID: 21300000, guid: c7f2cd36429594ae4b97d99543711caa, type: 3}
    - {fileID: 21300000, guid: 965d25e674465482abc6a62099036921, type: 3}
    - {fileID: 21300000, guid: 928c882c9527d454bba8d5ace42bbdd1, type: 3}
    - {fileID: 21300000, guid: 2c9783873010c45a1968a121f97b4113, type: 3}
    - {fileID: 21300000, guid: a1e2ed603bd2545cf9b179c8ac1f7b0e, type: 3}
    - {fileID: 21300000, guid: ba8431a5faf1d4bf8abfe53ebbc474ae, type: 3}
    - {fileID: 21300000, guid: 7555d71cace064f95a472cb12281b910, type: 3}
    - {fileID: 21300000, guid: 555291907d83145599742b98e7ebe7c7, type: 3}
    - {fileID: 21300000, guid: e9aec55d68a744398aaa888d6dea51a3, type: 3}
    - {fileID: 21300000, guid: 4082b5e1658054c6ebd124b63e88effc, type: 3}
    - {fileID: 21300000, guid: c539410758c2f47a5938d1757be3c90a, type: 3}
    - {fileID: 21300000, guid: 2469ee3c74b5d4f83bc18da96802c320, type: 3}
    - {fileID: 21300000, guid: 379385244721d4c48aab04394b3d01a0, type: 3}
    - {fileID: 21300000, guid: 2dfa1a6542ed14d3e9267b97f5062e0c, type: 3}
    - {fileID: 21300000, guid: e9f4830d84c524b039e473f37b9dfc72, type: 3}
  m_AnimationClipSettings:
    serializedVersion: 2
    m_AdditiveReferencePoseClip: {fileID: 0}
    m_AdditiveReferencePoseTime: 0
    m_StartTime: 0
    m_StopTime: 1
    m_OrientationOffsetY: 0
    m_Level: 0
    m_CycleOffset: 0
    m_HasAdditiveReferencePose: 0
    m_LoopTime: 1
    m_LoopBlend: 0
    m_LoopBlendOrientation: 0
    m_LoopBlendPositionY: 0
    m_LoopBlendPositionXZ: 0
    m_KeepOriginalOrientation: 0
    m_KeepOriginalPositionY: 1
    m_KeepOriginalPositionXZ: 0
    m_HeightFromFeet: 0
    m_Mirror: 0
  m_EditorCurves: []
  m_EulerEditorCurves: []
  m_HasGenericRootTransform: 0
  m_HasMotionFloatCurves: 0
  m_Events: []
