%YAML 1.1
%TAG !u! tag:unity3d.com,2011:
--- !u!74 &7400000
AnimationClip:
  m_ObjectHideFlags: 0
  m_CorrespondingSourceObject: {fileID: 0}
  m_PrefabInstance: {fileID: 0}
  m_PrefabAsset: {fileID: 0}
  m_Name: PlayerBounceAnimation
  serializedVersion: 6
  m_Legacy: 0
  m_Compressed: 0
  m_UseHighQualityCurve: 1
  m_RotationCurves: []
  m_CompressedRotationCurves: []
  m_EulerCurves: []
  m_PositionCurves: []
  m_ScaleCurves: []
  m_FloatCurves: []
  m_PPtrCurves:
  - curve:
    - time: 0
      value: {fileID: 21300000, guid: 924f1f03eab1149039217b6d64b68a7c, type: 3}
    - time: 0.016666668
      value: {fileID: 21300000, guid: d3255c51f2309484fa4eeffb850e24d3, type: 3}
    - time: 0.033333335
      value: {fileID: 21300000, guid: c97a61228209f4739bb9d270951afcfd, type: 3}
    - time: 0.05
      value: {fileID: 21300000, guid: cac7d0e7264ec47329a272f719d80373, type: 3}
    - time: 0.06666667
      value: {fileID: 21300000, guid: 299604d27c8ac4393b4ae3e62a741b03, type: 3}
    - time: 0.083333336
      value: {fileID: 21300000, guid: 6fb9c18145ebd401ba94a395ed15dcac, type: 3}
    - time: 0.1
      value: {fileID: 21300000, guid: 4d593beffc7dc430aa738f6f52bee1a6, type: 3}
    - time: 0.11666667
      value: {fileID: 21300000, guid: 4c8f778bed6aa402b9339f2d284a6591, type: 3}
    - time: 0.13333334
      value: {fileID: 21300000, guid: 11911e78daecc44199a835e8ae4ca46d, type: 3}
    - time: 0.15
      value: {fileID: 21300000, guid: ba255eb4816f744ad80d6b74aefe2e9a, type: 3}
    - time: 0.16666667
      value: {fileID: 21300000, guid: 4a527863d0cd24ee6ad0dd8f25aaaaee, type: 3}
    - time: 0.18333334
      value: {fileID: 21300000, guid: 6755f5972d2fd4d41a38227e69448d5c, type: 3}
    - time: 0.2
      value: {fileID: 21300000, guid: 83c2438f8525e4ba2ae1d9cd86ddf553, type: 3}
    - time: 0.21666667
      value: {fileID: 21300000, guid: a43c829cb765f43379eb93c8f1f6d7f5, type: 3}
    - time: 0.23333333
      value: {fileID: 21300000, guid: 4e32c2cd6670246bfb39cf95f0b80dec, type: 3}
    - time: 0.25
      value: {fileID: 21300000, guid: 8ab7b8207ab1745f995dc5caa7fe5acf, type: 3}
    - time: 0.26666668
      value: {fileID: 21300000, guid: a5c7fa1bff2714775a058e4ac463ab6e, type: 3}
    - time: 0.28333333
      value: {fileID: 21300000, guid: bfd6d0f485f9d4dd58c5080fd365803e, type: 3}
    - time: 0.3
      value: {fileID: 21300000, guid: b97470a70467244fbbec90505356582b, type: 3}
    - time: 0.31666666
      value: {fileID: 21300000, guid: 36cda1a6945354a1d9e759fd35bc086d, type: 3}
    - time: 0.33333334
      value: {fileID: 21300000, guid: 5cb1dbdf8702745d9aa57cdfce2ab2da, type: 3}
    - time: 0.35
      value: {fileID: 21300000, guid: a091396c2b3a640c4a3a1c6087849c20, type: 3}
    - time: 0.36666667
      value: {fileID: 21300000, guid: 3491428af7e784148bd6ad5fb40984df, type: 3}
    - time: 0.38333333
      value: {fileID: 21300000, guid: 1bf89539bfb8f49b3abb3cda54423829, type: 3}
    - time: 0.4
      value: {fileID: 21300000, guid: 33ffaed4966d44b8fbbf24b94b73d8e1, type: 3}
    - time: 0.41666666
      value: {fileID: 21300000, guid: 2601613e86f2846c681190bf283fd1bb, type: 3}
    - time: 0.43333334
      value: {fileID: 21300000, guid: 2b6eecd0020604179ac7b312865f4c4e, type: 3}
    - time: 0.45
      value: {fileID: 21300000, guid: c409e8702dff44376883432b8fadc68a, type: 3}
    - time: 0.46666667
      value: {fileID: 21300000, guid: be9b68bfe56cf486995d22ceca7b3e5e, type: 3}
    - time: 0.48333332
      value: {fileID: 21300000, guid: f64303c0521a64e45b780797714b6b30, type: 3}
    - time: 0.5
      value: {fileID: 21300000, guid: 47b707bb2d3cf46238bc958c1886c8ae, type: 3}
    - time: 0.51666665
      value: {fileID: 21300000, guid: 39b95c06b24604c0995e9da0ed6246a3, type: 3}
    - time: 0.53333336
      value: {fileID: 21300000, guid: 4e4d5f33d0f0d4be19f06489be21fbbd, type: 3}
    - time: 0.55
      value: {fileID: 21300000, guid: c996722791fc6461aae9466d9b8d311b, type: 3}
    - time: 0.56666666
      value: {fileID: 21300000, guid: 0e7ae2c91fa0d46a4bf19dc5fb603371, type: 3}
    - time: 0.5833333
      value: {fileID: 21300000, guid: 85b53706b323f4c8a8978b78eae77b80, type: 3}
    - time: 0.6
      value: {fileID: 21300000, guid: d8ee3460c0ed545789e73a13cd2e87b3, type: 3}
    - time: 0.6166667
      value: {fileID: 21300000, guid: b0c54d0b7d2f34ac8a2c316e4e2345b2, type: 3}
    - time: 0.6333333
      value: {fileID: 21300000, guid: cffd4aad621ff4d668ac3b67d408c087, type: 3}
    - time: 0.65
      value: {fileID: 21300000, guid: 7f0358a18e5564e1bb5db86e775cbbc0, type: 3}
    - time: 0.6666667
      value: {fileID: 21300000, guid: 5c89732f475d04664a981a0c9c458f84, type: 3}
    - time: 0.68333334
      value: {fileID: 21300000, guid: 532179116428c48929907c900cb50d07, type: 3}
    - time: 0.7
      value: {fileID: 21300000, guid: 29c5e069281974403b67686c8d330906, type: 3}
    - time: 0.71666664
      value: {fileID: 21300000, guid: fdb3667fb89ca473da6c803c0f7ca378, type: 3}
    - time: 0.73333335
      value: {fileID: 21300000, guid: b45c412edf1da4fc9b92e7e30455f4af, type: 3}
    - time: 0.75
      value: {fileID: 21300000, guid: 7bcc4ed53d80d4d30a6931ab8ee14be0, type: 3}
    - time: 0.76666665
      value: {fileID: 21300000, guid: 475b45d6c60c44e2cb4e540a51a25413, type: 3}
    - time: 0.78333336
      value: {fileID: 21300000, guid: a7e576a4c1f7f4e3da4a390aacb41d82, type: 3}
    - time: 0.8
      value: {fileID: 21300000, guid: 327ffdb4f47a44f6d8539c5885397521, type: 3}
    - time: 0.81666666
      value: {fileID: 21300000, guid: 928595c42b1804d61a38a8808834b2db, type: 3}
    - time: 0.8333333
      value: {fileID: 21300000, guid: 8a7496afc861247b99a934710d8b47a8, type: 3}
    - time: 0.85
      value: {fileID: 21300000, guid: 1f152d8edcefc42efb62a435bc072a3f, type: 3}
    - time: 0.8666667
      value: {fileID: 21300000, guid: dfcac915e0ca04c4cb2d73651bacd448, type: 3}
    - time: 0.8833333
      value: {fileID: 21300000, guid: 738e8c85df8584bf88fabe7a792af624, type: 3}
    - time: 0.9
      value: {fileID: 21300000, guid: 507e69da0df3e48ee89617ccdb4cfa76, type: 3}
    - time: 0.9166667
      value: {fileID: 21300000, guid: b0b771dab89c44428bd17af4c7035706, type: 3}
    - time: 0.93333334
      value: {fileID: 21300000, guid: 56a9ae07a8b114d6a9fa57a99a700361, type: 3}
    - time: 0.95
      value: {fileID: 21300000, guid: e5c6b898b44c440bdaed0b03a55fa7c1, type: 3}
    - time: 0.96666664
      value: {fileID: 21300000, guid: c55cc25c507ca4cdabf4868a8ee65568, type: 3}
    - time: 0.98333335
      value: {fileID: 21300000, guid: e6995624384854f0ea82c8897c8ec28f, type: 3}
    - time: 1
      value: {fileID: 21300000, guid: 6254dbfaefbee4283b3beec351d4df3f, type: 3}
    - time: 1.0166667
      value: {fileID: 21300000, guid: 312e970107c674c29b179780304082b6, type: 3}
    - time: 1.0333333
      value: {fileID: 21300000, guid: 647f807a95da24af981d46118adbea11, type: 3}
    - time: 1.05
      value: {fileID: 21300000, guid: 4a2c1a299f2854c7db252b5e1abbae62, type: 3}
    - time: 1.0666667
      value: {fileID: 21300000, guid: 35392faa483934f1b9da7800d2a5c18b, type: 3}
    attribute: m_Sprite
    path: Art
    classID: 212
    script: {fileID: 0}
  m_SampleRate: 60
  m_WrapMode: 0
  m_Bounds:
    m_Center: {x: 0, y: 0, z: 0}
    m_Extent: {x: 0, y: 0, z: 0}
  m_ClipBindingConstant:
    genericBindings:
    - serializedVersion: 2
      path: 3296235700
      attribute: 0
      script: {fileID: 0}
      typeID: 212
      customType: 23
      isPPtrCurve: 1
    pptrCurveMapping:
    - {fileID: 21300000, guid: 924f1f03eab1149039217b6d64b68a7c, type: 3}
    - {fileID: 21300000, guid: d3255c51f2309484fa4eeffb850e24d3, type: 3}
    - {fileID: 21300000, guid: c97a61228209f4739bb9d270951afcfd, type: 3}
    - {fileID: 21300000, guid: cac7d0e7264ec47329a272f719d80373, type: 3}
    - {fileID: 21300000, guid: 299604d27c8ac4393b4ae3e62a741b03, type: 3}
    - {fileID: 21300000, guid: 6fb9c18145ebd401ba94a395ed15dcac, type: 3}
    - {fileID: 21300000, guid: 4d593beffc7dc430aa738f6f52bee1a6, type: 3}
    - {fileID: 21300000, guid: 4c8f778bed6aa402b9339f2d284a6591, type: 3}
    - {fileID: 21300000, guid: 11911e78daecc44199a835e8ae4ca46d, type: 3}
    - {fileID: 21300000, guid: ba255eb4816f744ad80d6b74aefe2e9a, type: 3}
    - {fileID: 21300000, guid: 4a527863d0cd24ee6ad0dd8f25aaaaee, type: 3}
    - {fileID: 21300000, guid: 6755f5972d2fd4d41a38227e69448d5c, type: 3}
    - {fileID: 21300000, guid: 83c2438f8525e4ba2ae1d9cd86ddf553, type: 3}
    - {fileID: 21300000, guid: a43c829cb765f43379eb93c8f1f6d7f5, type: 3}
    - {fileID: 21300000, guid: 4e32c2cd6670246bfb39cf95f0b80dec, type: 3}
    - {fileID: 21300000, guid: 8ab7b8207ab1745f995dc5caa7fe5acf, type: 3}
    - {fileID: 21300000, guid: a5c7fa1bff2714775a058e4ac463ab6e, type: 3}
    - {fileID: 21300000, guid: bfd6d0f485f9d4dd58c5080fd365803e, type: 3}
    - {fileID: 21300000, guid: b97470a70467244fbbec90505356582b, type: 3}
    - {fileID: 21300000, guid: 36cda1a6945354a1d9e759fd35bc086d, type: 3}
    - {fileID: 21300000, guid: 5cb1dbdf8702745d9aa57cdfce2ab2da, type: 3}
    - {fileID: 21300000, guid: a091396c2b3a640c4a3a1c6087849c20, type: 3}
    - {fileID: 21300000, guid: 3491428af7e784148bd6ad5fb40984df, type: 3}
    - {fileID: 21300000, guid: 1bf89539bfb8f49b3abb3cda54423829, type: 3}
    - {fileID: 21300000, guid: 33ffaed4966d44b8fbbf24b94b73d8e1, type: 3}
    - {fileID: 21300000, guid: 2601613e86f2846c681190bf283fd1bb, type: 3}
    - {fileID: 21300000, guid: 2b6eecd0020604179ac7b312865f4c4e, type: 3}
    - {fileID: 21300000, guid: c409e8702dff44376883432b8fadc68a, type: 3}
    - {fileID: 21300000, guid: be9b68bfe56cf486995d22ceca7b3e5e, type: 3}
    - {fileID: 21300000, guid: f64303c0521a64e45b780797714b6b30, type: 3}
    - {fileID: 21300000, guid: 47b707bb2d3cf46238bc958c1886c8ae, type: 3}
    - {fileID: 21300000, guid: 39b95c06b24604c0995e9da0ed6246a3, type: 3}
    - {fileID: 21300000, guid: 4e4d5f33d0f0d4be19f06489be21fbbd, type: 3}
    - {fileID: 21300000, guid: c996722791fc6461aae9466d9b8d311b, type: 3}
    - {fileID: 21300000, guid: 0e7ae2c91fa0d46a4bf19dc5fb603371, type: 3}
    - {fileID: 21300000, guid: 85b53706b323f4c8a8978b78eae77b80, type: 3}
    - {fileID: 21300000, guid: d8ee3460c0ed545789e73a13cd2e87b3, type: 3}
    - {fileID: 21300000, guid: b0c54d0b7d2f34ac8a2c316e4e2345b2, type: 3}
    - {fileID: 21300000, guid: cffd4aad621ff4d668ac3b67d408c087, type: 3}
    - {fileID: 21300000, guid: 7f0358a18e5564e1bb5db86e775cbbc0, type: 3}
    - {fileID: 21300000, guid: 5c89732f475d04664a981a0c9c458f84, type: 3}
    - {fileID: 21300000, guid: 532179116428c48929907c900cb50d07, type: 3}
    - {fileID: 21300000, guid: 29c5e069281974403b67686c8d330906, type: 3}
    - {fileID: 21300000, guid: fdb3667fb89ca473da6c803c0f7ca378, type: 3}
    - {fileID: 21300000, guid: b45c412edf1da4fc9b92e7e30455f4af, type: 3}
    - {fileID: 21300000, guid: 7bcc4ed53d80d4d30a6931ab8ee14be0, type: 3}
    - {fileID: 21300000, guid: 475b45d6c60c44e2cb4e540a51a25413, type: 3}
    - {fileID: 21300000, guid: a7e576a4c1f7f4e3da4a390aacb41d82, type: 3}
    - {fileID: 21300000, guid: 327ffdb4f47a44f6d8539c5885397521, type: 3}
    - {fileID: 21300000, guid: 928595c42b1804d61a38a8808834b2db, type: 3}
    - {fileID: 21300000, guid: 8a7496afc861247b99a934710d8b47a8, type: 3}
    - {fileID: 21300000, guid: 1f152d8edcefc42efb62a435bc072a3f, type: 3}
    - {fileID: 21300000, guid: dfcac915e0ca04c4cb2d73651bacd448, type: 3}
    - {fileID: 21300000, guid: 738e8c85df8584bf88fabe7a792af624, type: 3}
    - {fileID: 21300000, guid: 507e69da0df3e48ee89617ccdb4cfa76, type: 3}
    - {fileID: 21300000, guid: b0b771dab89c44428bd17af4c7035706, type: 3}
    - {fileID: 21300000, guid: 56a9ae07a8b114d6a9fa57a99a700361, type: 3}
    - {fileID: 21300000, guid: e5c6b898b44c440bdaed0b03a55fa7c1, type: 3}
    - {fileID: 21300000, guid: c55cc25c507ca4cdabf4868a8ee65568, type: 3}
    - {fileID: 21300000, guid: e6995624384854f0ea82c8897c8ec28f, type: 3}
    - {fileID: 21300000, guid: 6254dbfaefbee4283b3beec351d4df3f, type: 3}
    - {fileID: 21300000, guid: 312e970107c674c29b179780304082b6, type: 3}
    - {fileID: 21300000, guid: 647f807a95da24af981d46118adbea11, type: 3}
    - {fileID: 21300000, guid: 4a2c1a299f2854c7db252b5e1abbae62, type: 3}
    - {fileID: 21300000, guid: 35392faa483934f1b9da7800d2a5c18b, type: 3}
  m_AnimationClipSettings:
    serializedVersion: 2
    m_AdditiveReferencePoseClip: {fileID: 0}
    m_AdditiveReferencePoseTime: 0
    m_StartTime: 0
    m_StopTime: 1.0833334
    m_OrientationOffsetY: 0
    m_Level: 0
    m_CycleOffset: 0
    m_HasAdditiveReferencePose: 0
    m_LoopTime: 1
    m_LoopBlend: 0
    m_LoopBlendOrientation: 0
    m_LoopBlendPositionY: 0
    m_LoopBlendPositionXZ: 0
    m_KeepOriginalOrientation: 0
    m_KeepOriginalPositionY: 1
    m_KeepOriginalPositionXZ: 0
    m_HeightFromFeet: 0
    m_Mirror: 0
  m_EditorCurves: []
  m_EulerEditorCurves: []
  m_HasGenericRootTransform: 0
  m_HasMotionFloatCurves: 0
  m_Events: []
